(export (version D)
  (design
    (source "F:\\Freelancer Jobs\\RJ\\RJ\\RJ.sch")
    (date "22-Dec-20 2:40:46 PM")
    (tool "Eeschema (5.1.8)-1")
    (sheet (number 1) (name /) (tstamps /)
      (title_block
        (title)
        (company)
        (rev)
        (date)
        (source RJ.sch)
        (comment (number 1) (value ""))
        (comment (number 2) (value ""))
        (comment (number 3) (value ""))
        (comment (number 4) (value "")))))
  (components
    (comp (ref SW7)
      (value SW_SPST)
      (footprint Button_Switch_THT:SW_PUSH-12mm)
      (datasheet ~)
      (libsource (lib Switch) (part SW_SPST) (description "Single Pole Single Throw (SPST) switch"))
      (sheetpath (names /) (tstamps /))
      (tstamp 5FDCD228))
    (comp (ref SW6)
      (value SW_SPST)
      (footprint Button_Switch_THT:SW_PUSH-12mm)
      (datasheet ~)
      (libsource (lib Switch) (part SW_SPST) (description "Single Pole Single Throw (SPST) switch"))
      (sheetpath (names /) (tstamps /))
      (tstamp 5FDCD73E))
    (comp (ref SW5)
      (value SW_SPST)
      (footprint Button_Switch_THT:SW_PUSH-12mm)
      (datasheet ~)
      (libsource (lib Switch) (part SW_SPST) (description "Single Pole Single Throw (SPST) switch"))
      (sheetpath (names /) (tstamps /))
      (tstamp 5FDCDB96))
    (comp (ref SW4)
      (value SW_SPST)
      (footprint Button_Switch_THT:SW_PUSH-12mm)
      (datasheet ~)
      (libsource (lib Switch) (part SW_SPST) (description "Single Pole Single Throw (SPST) switch"))
      (sheetpath (names /) (tstamps /))
      (tstamp 5FDCFE47))
    (comp (ref SW3)
      (value SW_SPST)
      (footprint Button_Switch_THT:SW_PUSH-12mm)
      (datasheet ~)
      (libsource (lib Switch) (part SW_SPST) (description "Single Pole Single Throw (SPST) switch"))
      (sheetpath (names /) (tstamps /))
      (tstamp 5FDCFE4D))
    (comp (ref SW2)
      (value SW_SPST)
      (footprint Button_Switch_THT:SW_PUSH-12mm)
      (datasheet ~)
      (libsource (lib Switch) (part SW_SPST) (description "Single Pole Single Throw (SPST) switch"))
      (sheetpath (names /) (tstamps /))
      (tstamp 5FDCFE53))
    (comp (ref SW1)
      (value SW_SPST)
      (footprint Button_Switch_THT:SW_PUSH-12mm)
      (datasheet ~)
      (libsource (lib Switch) (part SW_SPST) (description "Single Pole Single Throw (SPST) switch"))
      (sheetpath (names /) (tstamps /))
      (tstamp 5FDCFE59))
    (comp (ref R7)
      (value 1k)
      (footprint Resistor_SMD:R_1206_3216Metric_Pad1.42x1.75mm_HandSolder)
      (datasheet ~)
      (libsource (lib Device) (part R) (description Resistor))
      (sheetpath (names /) (tstamps /))
      (tstamp 5FDD39FE))
    (comp (ref R6)
      (value 1k)
      (footprint Resistor_SMD:R_1206_3216Metric_Pad1.42x1.75mm_HandSolder)
      (datasheet ~)
      (libsource (lib Device) (part R) (description Resistor))
      (sheetpath (names /) (tstamps /))
      (tstamp 5FDD4196))
    (comp (ref R5)
      (value 1k)
      (footprint Resistor_SMD:R_1206_3216Metric_Pad1.42x1.75mm_HandSolder)
      (datasheet ~)
      (libsource (lib Device) (part R) (description Resistor))
      (sheetpath (names /) (tstamps /))
      (tstamp 5FDD45AE))
    (comp (ref R4)
      (value 1k)
      (footprint Resistor_SMD:R_1206_3216Metric_Pad1.42x1.75mm_HandSolder)
      (datasheet ~)
      (libsource (lib Device) (part R) (description Resistor))
      (sheetpath (names /) (tstamps /))
      (tstamp 5FDD49C4))
    (comp (ref R3)
      (value 1k)
      (footprint Resistor_SMD:R_1206_3216Metric_Pad1.42x1.75mm_HandSolder)
      (datasheet ~)
      (libsource (lib Device) (part R) (description Resistor))
      (sheetpath (names /) (tstamps /))
      (tstamp 5FDD4D46))
    (comp (ref R2)
      (value 1k)
      (footprint Resistor_SMD:R_1206_3216Metric_Pad1.42x1.75mm_HandSolder)
      (datasheet ~)
      (libsource (lib Device) (part R) (description Resistor))
      (sheetpath (names /) (tstamps /))
      (tstamp 5FDD51F4))
    (comp (ref R1)
      (value 1k)
      (footprint Resistor_SMD:R_1206_3216Metric_Pad1.42x1.75mm_HandSolder)
      (datasheet ~)
      (libsource (lib Device) (part R) (description Resistor))
      (sheetpath (names /) (tstamps /))
      (tstamp 5FDD568E))
    (comp (ref J1)
      (value Conn_01x05_Male)
      (footprint Connector_PinHeader_2.54mm:PinHeader_1x05_P2.54mm_Vertical)
      (datasheet ~)
      (libsource (lib Connector) (part Conn_01x05_Male) (description "Generic connector, single row, 01x05, script generated (kicad-library-utils/schlib/autogen/connector/)"))
      (sheetpath (names /) (tstamps /))
      (tstamp 5FDDB168))
    (comp (ref R8)
      (value 1k)
      (footprint Resistor_SMD:R_1206_3216Metric_Pad1.42x1.75mm_HandSolder)
      (datasheet ~)
      (libsource (lib Device) (part R) (description Resistor))
      (sheetpath (names /) (tstamps /))
      (tstamp 5FDD301E))
    (comp (ref SW8)
      (value SW_SPST)
      (footprint Button_Switch_THT:SW_PUSH-12mm)
      (datasheet ~)
      (libsource (lib Switch) (part SW_SPST) (description "Single Pole Single Throw (SPST) switch"))
      (sheetpath (names /) (tstamps /))
      (tstamp 5FDCC293))
    (comp (ref R9)
      (value 1k)
      (footprint Resistor_SMD:R_1206_3216Metric_Pad1.42x1.75mm_HandSolder)
      (datasheet ~)
      (libsource (lib Device) (part R) (description Resistor))
      (sheetpath (names /) (tstamps /))
      (tstamp 5FDEF053))
    (comp (ref J3)
      (value Conn_01x03_Male)
      (footprint Connector_PinHeader_2.54mm:PinHeader_1x03_P2.54mm_Vertical)
      (datasheet ~)
      (libsource (lib Connector) (part Conn_01x03_Male) (description "Generic connector, single row, 01x03, script generated (kicad-library-utils/schlib/autogen/connector/)"))
      (sheetpath (names /) (tstamps /))
      (tstamp 5FDF6879))
    (comp (ref J2)
      (value Conn_01x01)
      (footprint TestPoint:TestPoint_Pad_2.0x2.0mm)
      (datasheet ~)
      (libsource (lib Connector_Generic) (part Conn_01x01) (description "Generic connector, single row, 01x01, script generated (kicad-library-utils/schlib/autogen/connector/)"))
      (sheetpath (names /) (tstamps /))
      (tstamp 5FE0F94A))
    (comp (ref J4)
      (value Conn_01x01)
      (footprint TestPoint:TestPoint_Pad_2.0x2.0mm)
      (datasheet ~)
      (libsource (lib Connector_Generic) (part Conn_01x01) (description "Generic connector, single row, 01x01, script generated (kicad-library-utils/schlib/autogen/connector/)"))
      (sheetpath (names /) (tstamps /))
      (tstamp 5FE10872)))
  (libparts
    (libpart (lib Connector) (part Conn_01x03_Male)
      (description "Generic connector, single row, 01x03, script generated (kicad-library-utils/schlib/autogen/connector/)")
      (docs ~)
      (footprints
        (fp Connector*:*_1x??_*))
      (fields
        (field (name Reference) J)
        (field (name Value) Conn_01x03_Male))
      (pins
        (pin (num 1) (name Pin_1) (type passive))
        (pin (num 2) (name Pin_2) (type passive))
        (pin (num 3) (name Pin_3) (type passive))))
    (libpart (lib Connector) (part Conn_01x05_Male)
      (description "Generic connector, single row, 01x05, script generated (kicad-library-utils/schlib/autogen/connector/)")
      (docs ~)
      (footprints
        (fp Connector*:*_1x??_*))
      (fields
        (field (name Reference) J)
        (field (name Value) Conn_01x05_Male))
      (pins
        (pin (num 1) (name Pin_1) (type passive))
        (pin (num 2) (name Pin_2) (type passive))
        (pin (num 3) (name Pin_3) (type passive))
        (pin (num 4) (name Pin_4) (type passive))
        (pin (num 5) (name Pin_5) (type passive))))
    (libpart (lib Connector_Generic) (part Conn_01x01)
      (description "Generic connector, single row, 01x01, script generated (kicad-library-utils/schlib/autogen/connector/)")
      (docs ~)
      (footprints
        (fp Connector*:*_1x??_*))
      (fields
        (field (name Reference) J)
        (field (name Value) Conn_01x01))
      (pins
        (pin (num 1) (name Pin_1) (type passive))))
    (libpart (lib Device) (part R)
      (description Resistor)
      (docs ~)
      (footprints
        (fp R_*))
      (fields
        (field (name Reference) R)
        (field (name Value) R))
      (pins
        (pin (num 1) (name ~) (type passive))
        (pin (num 2) (name ~) (type passive))))
    (libpart (lib Switch) (part SW_SPST)
      (description "Single Pole Single Throw (SPST) switch")
      (docs ~)
      (fields
        (field (name Reference) SW)
        (field (name Value) SW_SPST))
      (pins
        (pin (num 1) (name A) (type passive))
        (pin (num 2) (name B) (type passive)))))
  (libraries
    (library (logical Connector)
      (uri "C:\\Program Files\\KiCad\\share\\kicad\\library/Connector.lib"))
    (library (logical Connector_Generic)
      (uri "C:\\Program Files\\KiCad\\share\\kicad\\library/Connector_Generic.lib"))
    (library (logical Device)
      (uri "C:\\Program Files\\KiCad\\share\\kicad\\library/Device.lib"))
    (library (logical Switch)
      (uri "C:\\Program Files\\KiCad\\share\\kicad\\library/Switch.lib")))
  (nets
    (net (code 1) (name "Net-(R7-Pad1)")
      (node (ref R8) (pin 2))
      (node (ref SW7) (pin 2))
      (node (ref R7) (pin 1)))
    (net (code 2) (name "Net-(R8-Pad1)")
      (node (ref R8) (pin 1))
      (node (ref R9) (pin 1))
      (node (ref SW8) (pin 2)))
    (net (code 4) (name "Net-(J2-Pad1)")
      (node (ref J2) (pin 1))
      (node (ref J3) (pin 1)))
    (net (code 5) (name "Net-(J3-Pad3)")
      (node (ref J3) (pin 3)))
    (net (code 6) (name "Net-(J3-Pad2)")
      (node (ref J3) (pin 2)))
    (net (code 14) (name "Net-(R2-Pad1)")
      (node (ref R2) (pin 1))
      (node (ref SW2) (pin 2))
      (node (ref R3) (pin 2)))
    (net (code 15) (name "Net-(R3-Pad1)")
      (node (ref R4) (pin 2))
      (node (ref R3) (pin 1))
      (node (ref SW3) (pin 2)))
    (net (code 16) (name "Net-(R4-Pad1)")
      (node (ref SW4) (pin 2))
      (node (ref R4) (pin 1))
      (node (ref R5) (pin 2)))
    (net (code 17) (name "Net-(R5-Pad1)")
      (node (ref SW5) (pin 2))
      (node (ref R6) (pin 2))
      (node (ref R5) (pin 1)))
    (net (code 18) (name "Net-(R6-Pad1)")
      (node (ref SW6) (pin 2))
      (node (ref R7) (pin 2))
      (node (ref R6) (pin 1)))
    (net (code 19) (name "Net-(R1-Pad1)")
      (node (ref SW1) (pin 2))
      (node (ref R2) (pin 2))
      (node (ref R1) (pin 1)))
    (net (code 20) (name /A0)
      (node (ref SW5) (pin 1))
      (node (ref SW6) (pin 1))
      (node (ref J1) (pin 4))
      (node (ref J1) (pin 3))
      (node (ref J1) (pin 2))
      (node (ref SW7) (pin 1))
      (node (ref SW8) (pin 1))
      (node (ref SW4) (pin 1))
      (node (ref SW3) (pin 1))
      (node (ref SW2) (pin 1))
      (node (ref SW1) (pin 1)))
    (net (code 21) (name /G)
      (node (ref J1) (pin 1))
      (node (ref J4) (pin 1))
      (node (ref R9) (pin 2)))
    (net (code 22) (name /A3)
      (node (ref J1) (pin 5))
      (node (ref R1) (pin 2)))))